<svg xmlns="http://www.w3.org/2000/svg" xmlns:xlink="http://www.w3.org/1999/xlink" width="24" height="24" viewBox="0 0 24 24">
    <defs>
        <path id="a" d="M15.633 0c2.409 0 3.613 0 4.91.41a5.097 5.097 0 0 1 3.047 3.047c.41 1.296.41 2.501.41 4.91v7.266c0 2.409 0 3.613-.41 4.91a5.096 5.096 0 0 1-3.047 3.047c-1.297.41-2.501.41-4.91.41H8.367c-2.409 0-3.614 0-4.91-.41A5.096 5.096 0 0 1 .41 20.543C0 19.246 0 18.042 0 15.633V8.367c0-2.409 0-3.614.41-4.91A5.097 5.097 0 0 1 3.457.41C4.753 0 5.958 0 8.367 0h7.266z"/>
        <linearGradient id="b" x1="52.792%" x2="90.731%" y1="-8.824%" y2="100%">
            <stop offset="0%" stop-color="#2B4AF4"/>
            <stop offset="41.094%" stop-color="#C928DD"/>
            <stop offset="100%" stop-color="#F61372"/>
        </linearGradient>
        <filter id="d" width="154.2%" height="154.2%" x="-27.1%" y="-27.1%" filterUnits="objectBoundingBox">
            <feGaussianBlur in="SourceGraphic" stdDeviation="2.344"/>
        </filter>
        <filter id="e" width="165.5%" height="165.5%" x="-32.8%" y="-32.8%" filterUnits="objectBoundingBox">
            <feGaussianBlur in="SourceGraphic" stdDeviation="2.344"/>
        </filter>
        <filter id="f" width="166.7%" height="166.7%" x="-33.3%" y="-33.3%" filterUnits="objectBoundingBox">
            <feGaussianBlur in="SourceGraphic" stdDeviation="2.344"/>
        </filter>
        <filter id="g" width="185.7%" height="185.7%" x="-42.9%" y="-42.9%" filterUnits="objectBoundingBox">
            <feGaussianBlur in="SourceGraphic" stdDeviation="2.344"/>
        </filter>
        <filter id="h" width="189.1%" height="189.1%" x="-44.6%" y="-44.6%" filterUnits="objectBoundingBox">
            <feGaussianBlur in="SourceGraphic" stdDeviation="1.838"/>
        </filter>
        <filter id="i" width="238.4%" height="238.4%" x="-69.2%" y="-69.2%" filterUnits="objectBoundingBox">
            <feGaussianBlur in="SourceGraphic" stdDeviation="1.838"/>
        </filter>
    </defs>
    <g fill="none" fill-rule="evenodd">
        <g>
            <mask id="c" fill="#fff">
                <use xlink:href="#a"/>
            </mask>
            <use fill="#FFF" xlink:href="#a"/>
            <path fill="url(#b)" d="M0 0h24v24H0z" mask="url(#c)"/>
            <circle cx="7.945" cy="22.898" r="12.961" fill="#FF1E48" filter="url(#d)" mask="url(#c)"/>
            <circle cx="10.734" cy="15.185" r="10.734" fill="#D71C92" filter="url(#e)" mask="url(#c)"/>
            <circle cx="9.938" cy="21.563" r="10.547" fill="#FE6127" filter="url(#f)" mask="url(#c)"/>
            <circle cx="7.714" cy="25.553" r="8.203" fill="#FEE990" filter="url(#g)" mask="url(#c)" opacity=".655"/>
            <circle cx="7.828" cy="26.531" r="6.188" fill="#FEE990" filter="url(#h)" mask="url(#c)"/>
            <circle cx="13.031" cy="14.625" r="3.984" fill="#FE2746" filter="url(#i)" mask="url(#c)"/>
        </g>
        <g transform="translate(3.188 3.188)">
            <path fill="#FFF" d="M10.545.001c1.768 0 4.015-.1 5.624 1.498 1.609 1.599 1.452 3.81 1.452 5.576v3.457c0 1.767.14 4.172-1.452 5.763-1.592 1.59-3.856 1.31-5.624 1.31H7.088c-1.768 0-4.126.282-5.718-1.31C-.222 14.703.012 12.299.012 10.532V7.075c0-1.767-.234-3.984 1.358-5.576C2.963-.092 5.32.001 7.088.001h3.457zm.627 1.598H6.464c-1.448 0-2.7-.14-3.872 1.032-1.175 1.172-.987 2.379-.987 3.827v4.708c0 1.448-.186 2.671.987 3.844 1.173 1.17 2.424 1.014 3.872 1.014h4.708c1.448 0 2.765.02 3.796-1.014 1.032-1.032 1.063-2.396 1.063-3.844V6.458c0-1.448-.024-2.785-1.063-3.827-1.173-1.175-2.348-1.032-3.796-1.032z"/>
            <circle cx="8.813" cy="8.813" r="3.75" stroke="#FFF" stroke-width="1.594"/>
            <circle cx="13.547" cy="4.078" r="1.078" fill="#FFF"/>
        </g>
    </g>
</svg>
