<svg xmlns="http://www.w3.org/2000/svg" xmlns:xlink="http://www.w3.org/1999/xlink" width="122" height="66" viewBox="0 0 122 66">
    <defs>
        <path id="b" d="M1.583 12.233L30.58 6.06c1.373-.292 3.006.512 3.647 1.797l8.515 17.056c.64 1.284.048 2.562-1.325 2.854L12.42 33.94c-1.373.292-3.006-.512-3.647-1.797L.258 15.087c-.64-1.284-.048-2.562 1.325-2.854z"/>
        <filter id="a" width="148.8%" height="175%" x="-22.1%" y="-26.8%" filterUnits="objectBoundingBox">
            <feOffset dx="1" dy="3" in="SourceAlpha" result="shadowOffsetOuter1"/>
            <feGaussianBlur in="shadowOffsetOuter1" result="shadowBlurOuter1" stdDeviation="3"/>
            <feComposite in="shadowBlurOuter1" in2="SourceAlpha" operator="out" result="shadowBlurOuter1"/>
            <feColorMatrix in="shadowBlurOuter1" values="0 0 0 0 0.717647059 0 0 0 0 0.741176471 0 0 0 0 0.88627451 0 0 0 0.25 0"/>
        </filter>
        <path id="d" d="M25.424 34.954l28.997-6.172c1.373-.293 3.005.512 3.647 1.796l8.514 17.056c.642 1.285.049 2.563-1.324 2.855L36.26 56.662c-1.372.292-3.005-.512-3.646-1.797L24.099 37.81c-.641-1.284-.048-2.562 1.325-2.855z"/>
        <filter id="c" width="148.8%" height="175%" x="-22.1%" y="-26.8%" filterUnits="objectBoundingBox">
            <feOffset dx="1" dy="3" in="SourceAlpha" result="shadowOffsetOuter1"/>
            <feGaussianBlur in="shadowOffsetOuter1" result="shadowBlurOuter1" stdDeviation="3"/>
            <feComposite in="shadowBlurOuter1" in2="SourceAlpha" operator="out" result="shadowBlurOuter1"/>
            <feColorMatrix in="shadowBlurOuter1" values="0 0 0 0 0.717647059 0 0 0 0 0.741176471 0 0 0 0 0.88627451 0 0 0 0.25 0"/>
        </filter>
    </defs>
    <g fill="none" fill-rule="evenodd" transform="translate(5 1)">
        <circle cx="45" cy="32" r="30" fill="#EEEFF7"/>
        <use fill="#000" filter="url(#a)" xlink:href="#b"/>
        <path fill="#FFF" stroke="#B7BDE2" stroke-linejoin="square" d="M1.687 12.722c-1.05.223-1.478 1.147-.981 2.142L9.22 31.92c.54 1.082 1.948 1.775 3.096 1.531l28.997-6.173c1.05-.223 1.478-1.147.981-2.142L33.78 8.08c-.54-1.082-1.948-1.775-3.096-1.531L1.687 12.722z"/>
        <use fill="#000" filter="url(#c)" xlink:href="#d"/>
        <path fill="#FFF" stroke="#B7BDE2" stroke-linejoin="square" d="M25.528 35.443c-1.05.224-1.478 1.148-.981 2.143l8.514 17.056c.54 1.082 1.947 1.775 3.095 1.53L65.154 50c1.049-.223 1.478-1.147.98-2.142L57.62 30.802c-.54-1.082-1.947-1.776-3.095-1.531l-28.997 6.172z"/>
        <g transform="translate(52)">
            <path fill="#FFF" stroke="#5C6282" d="M20 44.05c11.046 0 20-8.955 20-20V20H0v4.05c0 11.045 8.954 20 20 20z"/>
            <path fill="#5C6282" stroke="#5C6282" stroke-linecap="round" d="M41.581 30.237c2.899 1.712 9.671 5.935 20.317 12.668a4 4 0 0 1 1.254 5.5l-.543.87a4 4 0 0 1-5.51 1.273A15119.913 15119.913 0 0 1 36.812 37.87c-3.66-2.43.912-10.01 4.77-7.632z"/>
            <path fill="#FFF" stroke="#5C6282" stroke-linecap="round" d="M20 40c11.046 0 20-8.954 20-20S31.046 0 20 0 0 8.954 0 20c0 6.667 3.262 12.572 8.278 16.206"/>
            <path fill="#EEEFF7" d="M19.598 6.006c6.787 4.516 11.63 11.723 13.005 20.099C30.335 30.778 25.543 34 20 34c-7.732 0-14-6.268-14-14 0-7.597 6.052-13.781 13.598-13.994z"/>
            <path fill="#FFF" stroke="#B7BDE2" d="M6.2 22.368l6.647-1.3c1.565-.333 3.425.586 4.156 2.054l5.32 10.686C21.566 33.934 20.79 34 20 34c-6.925 0-12.676-5.028-13.8-11.632z"/>
            <circle cx="20" cy="20" r="14" stroke="#5C6282"/>
        </g>
    </g>
</svg>
